{
    "chan_hh__cat_boost__cr_ztt_ee_corr": {
        "channels": "ee", 
        "categories": "boost", 
	"regions": "Ztt_cr_corr_hh"},

    "chan_lh__cat_boost__cr_ztt_ee_corr": {
	"channels": "ee",
        "categories": "boost",
	"regions": "Ztt_cr_corr_lh"},
    
    "chan_ll__cat_boost__cr_ztt_ee_corr": {
        "channels": "ee",
        "categories": "boost",
	"regions": "Ztt_cr_corr_ll"},

    "chan_hh__cat_vbf__cr_ztt_ee_corr": {
        "channels": "ee", 
        "categories": "vbf", 
	"regions": "Ztt_cr_corr_hh"},

    "chan_lh__cat_vbf__cr_ztt_ee_corr": {
	"channels": "ee",
        "categories": "vbf",
	"regions": "Ztt_cr_corr_lh"},
    
    "chan_ll__cat_vbf__cr_ztt_ee_corr": {
        "channels": "ee",
        "categories": "vbf",
	"regions": "Ztt_cr_corr_ll"},

    "chan_hh__cat_vh__cr_ztt_ee_corr": {
        "channels": "ee", 
        "categories": "vh", 
	"regions": "Ztt_cr_corr_hh"},

    "chan_lh__cat_vh__cr_ztt_ee_corr": {
	"channels": "ee",
        "categories": "vh",
	"regions": "Ztt_cr_corr_lh"},
    
    "chan_ll__cat_vh__cr_ztt_ee_corr": {
        "channels": "ee",
        "categories": "vh",
	"regions": "Ztt_cr_corr_ll"}

}
