{
    "chan_hh__cat_boost__sr": {
        "channels": ["1p1p", "1p3p", "3p1p", "3p3p"], 
        "categories": "boost", 
	"regions": "SR"},

    "chan_lh__cat_boost__sr": {
	"channels": ["e1p", "e3p", "mu1p", "mu3p"],
	"categories": "boost",
	"regions": "SR"},
    
    "chan_ll__cat_boost__sr": {
        "channels": ["emu", "mue"],
        "categories": "boost",
	"regions": "SR"},

    "chan_hh__cat_vbf__sr": {
        "channels": ["1p1p", "1p3p", "3p1p", "3p3p"], 
        "categories": "vbf", 
	"regions": "SR"},

    "chan_lh__cat_vbf__sr": {
	"channels": ["e1p", "e3p", "mu1p", "mu3p"],
	"categories": "vbf",
	"regions": "SR"},
    
    "chan_ll__cat_vbf__sr": {
        "channels": ["emu", "mue"],
        "categories": "vbf",
	"regions": "SR"},

    "chan_hh__cat_vh__sr": {
        "channels": ["1p1p", "1p3p", "3p1p", "3p3p"], 
        "categories": "vh", 
	"regions": "SR"},

    "chan_lh__cat_vh__sr": {
	"channels": ["e1p", "e3p", "mu1p", "mu3p"],
	"categories": "vh",
	"regions": "SR"},
    
    "chan_ll__cat_vh__sr": {
        "channels": ["emu", "mue"],
        "categories": "vh",
	"regions": "SR"}

}
