{
    "chan_hh__cat_boost_0_1J__sr": {
        "channels": ["1p1p", "1p3p", "3p1p", "3p3p"], 
        "categories": "boost_0_1J", 
	"regions": "SR"},

   "chan_hh__cat_boost_1_1J__sr": {
        "channels": ["1p1p", "1p3p", "3p1p", "3p3p"], 
        "categories": "boost_1_1J", 
        "regions": "SR"},

    "chan_hh__cat_boost_2_1J__sr": {
        "channels": ["1p1p", "1p3p", "3p1p", "3p3p"], 
        "categories": "boost_2_1J", 
        "regions": "SR"},

    "chan_hh__cat_boost_3_1J__sr": {
        "channels": ["1p1p", "1p3p", "3p1p", "3p3p"], 
        "categories": "boost_3_1J", 
        "regions": "SR"},

    "chan_hh__cat_boost_0_ge2J__sr": {
        "channels": ["1p1p", "1p3p", "3p1p", "3p3p"], 
        "categories": "boost_0_ge2J", 
	"regions": "SR"},

    "chan_hh__cat_boost_1_ge2J__sr": {
        "channels": ["1p1p", "1p3p", "3p1p", "3p3p"], 
        "categories": "boost_1_ge2J", 
        "regions": "SR"},

    "chan_hh__cat_boost_2_ge2J__sr": {
        "channels": ["1p1p", "1p3p", "3p1p", "3p3p"], 
        "categories": "boost_2_ge2J", 
        "regions": "SR"},

    "chan_hh__cat_boost_3_ge2J__sr": {
        "channels": ["1p1p", "1p3p", "3p1p", "3p3p"], 
        "categories": "boost_3_ge2J", 
        "regions": "SR"},

    "chan_hh__cat_vh_0__sr": {
        "channels": ["1p1p", "1p3p", "3p1p", "3p3p"], 
        "categories": "vh_0", 
        "regions": "SR"},

    "chan_hh__cat_vh_1__sr": {
        "channels": ["1p1p", "1p3p", "3p1p", "3p3p"], 
        "categories": "vh_1", 
        "regions": "SR"},

    "chan_hh__cat_vbf_0__sr": {
        "channels": ["1p1p", "1p3p", "3p1p", "3p3p"], 
        "categories": "vbf_0", 
        "regions": "SR"},

    "chan_hh__cat_vbf_1__sr": {
        "channels": ["1p1p", "1p3p", "3p1p", "3p3p"], 
        "categories": "vbf_1", 
        "regions": "SR"},

    "chan_hh__cat_tth_0__sr": {
        "channels": ["1p1p", "1p3p", "3p1p", "3p3p"],
        "categories": "tth_0",
        "regions": "SR"},

    "chan_hh__cat_tth_1__sr": {
        "channels": ["1p1p", "1p3p", "3p1p", "3p3p"],
        "categories": "tth_1",
        "regions": "SR"},

    "chan_lh__cat_boost_0_1J__sr": {
        "channels": ["e1p", "e3p", "mu1p", "mu3p"],
        "categories": "boost_0_1J", 
        "regions": "SR"},

    "chan_lh__cat_boost_1_1J__sr": {
        "channels": ["e1p", "e3p", "mu1p", "mu3p"],
        "categories": "boost_1_1J", 
        "regions": "SR"},

    "chan_lh__cat_boost_2_1J__sr": {
        "channels": ["e1p", "e3p", "mu1p", "mu3p"],
        "categories": "boost_2_1J", 
        "regions": "SR"},

    "chan_lh__cat_boost_3_1J__sr": {
        "channels": ["e1p", "e3p", "mu1p", "mu3p"],
        "categories": "boost_3_1J", 
        "regions": "SR"},

    "chan_lh__cat_boost_0_ge2J__sr": {
        "channels": ["e1p", "e3p", "mu1p", "mu3p"],
        "categories": "boost_0_ge2J", 
        "regions": "SR"},

    "chan_lh__cat_boost_1_ge2J__sr": {
        "channels": ["e1p", "e3p", "mu1p", "mu3p"],
        "categories": "boost_1_ge2J", 
        "regions": "SR"},

    "chan_lh__cat_boost_2_ge2J__sr": {
        "channels": ["e1p", "e3p", "mu1p", "mu3p"],
        "categories": "boost_2_ge2J", 
        "regions": "SR"},

    "chan_lh__cat_boost_3_ge2J__sr": {
        "channels": ["e1p", "e3p", "mu1p", "mu3p"],
        "categories": "boost_3_ge2J", 
        "regions": "SR"},

    "chan_lh__cat_vh_0__sr": {
        "channels": ["e1p", "e3p", "mu1p", "mu3p"], 
        "categories": "vh_0", 
        "regions": "SR"},

    "chan_lh__cat_vh_1__sr": {
        "channels": ["e1p", "e3p", "mu1p", "mu3p"], 
        "categories": "vh_1", 
        "regions": "SR"},

    "chan_lh__cat_vbf_0__sr": {
        "channels": ["e1p", "e3p", "mu1p", "mu3p"], 
        "categories": "vbf_0", 
        "regions": "SR"},

    "chan_lh__cat_vbf_1__sr": {
        "channels": ["e1p", "e3p", "mu1p", "mu3p"], 
        "categories": "vbf_1", 
        "regions": "SR"},

    "chan_ll__cat_boost_0_1J__sr": {
        "channels": ["emu", "mue"],
        "categories": "boost_0_1J", 
        "regions": "SR"},

    "chan_ll__cat_boost_1_1J__sr": {
        "channels": ["emu", "mue"],
        "categories": "boost_1_1J", 
        "regions": "SR"},

    "chan_ll__cat_boost_2_1J__sr": {
        "channels": ["emu", "mue"],
        "categories": "boost_2_1J", 
        "regions": "SR"},

    "chan_ll__cat_boost_3_1J__sr": {
        "channels": ["emu", "mue"],
        "categories": "boost_3_1J", 
        "regions": "SR"},

    "chan_ll__cat_boost_0_ge2J__sr": {
        "channels": ["emu", "mue"],
        "categories": "boost_0_ge2J", 
        "regions": "SR"},

    "chan_ll__cat_boost_1_ge2J__sr": {
        "channels": ["emu", "mue"],
        "categories": "boost_1_ge2J", 
        "regions": "SR"},

    "chan_ll__cat_boost_2_ge2J__sr": {
        "channels": ["emu", "mue"],
        "categories": "boost_2_ge2J", 
        "regions": "SR"},

    "chan_ll__cat_boost_3_ge2J__sr": {
        "channels": ["emu", "mue"],
        "categories": "boost_3_ge2J", 
        "regions": "SR"},

    "chan_ll__cat_vbf_0__sr": {
        "channels": ["emu", "mue"], 
        "categories": "vbf_0", 
        "regions": "SR"},

    "chan_ll__cat_vbf_1__sr": {
        "channels": ["emu", "mue"], 
        "categories": "vbf_1", 
        "regions": "SR"},

    "chan_ll__cat_vh_0__sr": {
        "channels": ["emu", "mue"], 
        "categories": "vh_0", 
        "regions": "SR"},

    "chan_ll__cat_vh_1__sr": {
        "channels": ["emu", "mue"], 
        "categories": "vh_1", 
        "regions": "SR"},
   
    "chan_lh__cat_vh_0__top": {
        "channels": ["e1p", "e3p", "mu1p", "mu3p"],
        "categories": "vh_0",
        "regions": "top"},

    "chan_lh__cat_vh_1__top": {
        "channels": ["e1p", "e3p", "mu1p", "mu3p"],
        "categories": "vh_1",
        "regions": "top"},

    "chan_lh__cat_vbf_0__top": {
        "channels": ["e1p", "e3p", "mu1p", "mu3p"],
        "categories": "vbf_0",
        "regions": "top"},

    "chan_lh__cat_vbf_1__top": {
        "channels": ["e1p", "e3p", "mu1p", "mu3p"],
        "categories": "vbf_1",
        "regions": "top"},
    
    "chan_lh__cat_boost_0_1J__top": {
        "channels": ["e1p", "e3p", "mu1p", "mu3p"],
        "categories": "boost_0_1J",
        "regions": "top"},

    "chan_lh__cat_boost_1_1J__top": {
        "channels": ["e1p", "e3p", "mu1p", "mu3p"],
        "categories": "boost_1_1J",
        "regions": "top"},

    "chan_lh__cat_boost_2_1J__top": {
        "channels": ["e1p", "e3p", "mu1p", "mu3p"],
        "categories": "boost_2_1J",
        "regions": "top"},

    "chan_lh__cat_boost_3_1J__top": {
        "channels": ["e1p", "e3p", "mu1p", "mu3p"],
        "categories": "boost_3_1J",
        "regions": "top"},

    "chan_lh__cat_boost_0_ge2J__top": {
        "channels": ["e1p", "e3p", "mu1p", "mu3p"],
        "categories": "boost_0_ge2J",
        "regions": "top"},

    "chan_lh__cat_boost_1_ge2J__top": {
        "channels": ["e1p", "e3p", "mu1p", "mu3p"],
        "categories": "boost_1_ge2J",
        "regions": "top"},

    "chan_lh__cat_boost_2_ge2J__top": {
        "channels": ["e1p", "e3p", "mu1p", "mu3p"],
        "categories": "boost_2_ge2J",
        "regions": "top"},

    "chan_lh__cat_boost_3_ge2J__top": {
        "channels": ["e1p", "e3p", "mu1p", "mu3p"],
        "categories": "boost_3_ge2J",
        "regions": "top"},
   
    "chan_ll__cat_vbf_0__top": {
        "channels": ["emu", "mue"],
        "categories": "vbf_0",
        "regions": "top"},

    "chan_ll__cat_vbf_1__top": {
        "channels": ["emu", "mue"],
        "categories": "vbf_1",
        "regions": "top"},

    "chan_ll__cat_vh_0__top": {
        "channels": ["emu", "mue"],
        "categories": "vh_0",
        "regions": "top"},

    "chan_ll__cat_vh_1__top": {
        "channels": ["emu", "mue"],
        "categories": "vh_1",
        "regions": "top"},

    "chan_ll__cat_boost_0_1J__top": {
        "channels": ["emu", "mue"],
        "categories": "boost_0_1J",
        "regions": "top"},

    "chan_ll__cat_boost_1_1J__top": {
        "channels": ["emu", "mue"],
        "categories": "boost_1_1J",
        "regions": "top"},

    "chan_ll__cat_boost_2_1J__top": {
        "channels": ["emu", "mue"],
        "categories": "boost_2_1J",
        "regions": "top"},

    "chan_ll__cat_boost_3_1J__top": {
        "channels": ["emu", "mue"],
        "categories": "boost_3_1J",
        "regions": "top"},

    "chan_ll__cat_boost_0_ge2J__top": {
        "channels": ["emu", "mue"],
        "categories": "boost_0_ge2J",
        "regions": "top"},

    "chan_ll__cat_boost_1_ge2J__top": {
        "channels": ["emu", "mue"],
        "categories": "boost_1_ge2J",
        "regions": "top"},

    "chan_ll__cat_boost_2_ge2J__top": {
        "channels": ["emu", "mue"],
        "categories": "boost_2_ge2J",
        "regions": "top"},

    "chan_ll__cat_boost_3_ge2J__top": {
        "channels": ["emu", "mue"],
        "categories": "boost_3_ge2J",
        "regions": "top"},

    "chan_ll__cat_boost_0_1J__cr_ztt_corr_ee": {
        "channels": ["ee"],
        "categories": "boost_0_1J",
        "regions": "Ztt_cr_corr_ll"},

    "chan_ll__cat_boost_0_1J__cr_ztt_corr_mumu": {
        "channels": ["mumu"],
        "categories": "boost_0_1J",
        "regions": "Ztt_cr_corr_ll"},

    "chan_lh__cat_boost_0_1J__cr_ztt_corr_ee": {
        "channels": ["ee"],
        "categories": "boost_0_1J",
        "regions": "Ztt_cr_corr_lh"},

    "chan_lh__cat_boost_0_1J__cr_ztt_corr_mumu": {
        "channels": ["mumu"],
        "categories": "boost_0_1J",
        "regions": "Ztt_cr_corr_lh"},

    "chan_hh__cat_boost_0_1J__cr_ztt_corr_ee": {
        "channels": ["ee"],
        "categories": "boost_0_1J",
        "regions": "Ztt_cr_corr_hh"},

    "chan_hh__cat_boost_0_1J__cr_ztt_corr_mumu": {
        "channels": ["mumu"],
        "categories": "boost_0_1J",
        "regions": "Ztt_cr_corr_hh"},

    "chan_ll__cat_boost_1_1J__cr_ztt_corr_ee": {
        "channels": ["ee"],
        "categories": "boost_1_1J",
        "regions": "Ztt_cr_corr_ll"},

    "chan_ll__cat_boost_1_1J__cr_ztt_corr_mumu": {
        "channels": ["mumu"],
        "categories": "boost_1_1J",
        "regions": "Ztt_cr_corr_ll"},

    "chan_lh__cat_boost_1_1J__cr_ztt_corr_ee": {
        "channels": ["ee"],
        "categories": "boost_1_1J",
        "regions": "Ztt_cr_corr_lh"},

    "chan_lh__cat_boost_1_1J__cr_ztt_corr_mumu": {
        "channels": ["mumu"],
        "categories": "boost_1_1J",
        "regions": "Ztt_cr_corr_lh"},

    "chan_hh__cat_boost_1_1J__cr_ztt_corr_ee": {
        "channels": ["ee"],
        "categories": "boost_1_1J",
        "regions": "Ztt_cr_corr_hh"},

    "chan_hh__cat_boost_1_1J__cr_ztt_corr_mumu": {
        "channels": ["mumu"],
        "categories": "boost_1_1J",
        "regions": "Ztt_cr_corr_hh"},

    "chan_ll__cat_boost_2_1J__cr_ztt_corr_ee": {
        "channels": ["ee"],
        "categories": "boost_2_1J",
        "regions": "Ztt_cr_corr_ll"},

    "chan_ll__cat_boost_2_1J__cr_ztt_corr_mumu": {
        "channels": ["mumu"],
        "categories": "boost_2_1J",
        "regions": "Ztt_cr_corr_ll"},

    "chan_lh__cat_boost_2_1J__cr_ztt_corr_ee": {
        "channels": ["ee"],
        "categories": "boost_2_1J",
        "regions": "Ztt_cr_corr_lh"},

    "chan_lh__cat_boost_2_1J__cr_ztt_corr_mumu": {
        "channels": ["mumu"],
        "categories": "boost_2_1J",
        "regions": "Ztt_cr_corr_lh"},

    "chan_hh__cat_boost_2_1J__cr_ztt_corr_ee": {
        "channels": ["ee"],
        "categories": "boost_2_1J",
        "regions": "Ztt_cr_corr_hh"},

    "chan_hh__cat_boost_2_1J__cr_ztt_corr_mumu": {
        "channels": ["mumu"],
        "categories": "boost_2_1J",
        "regions": "Ztt_cr_corr_hh"},

    "chan_ll__cat_boost_3_1J__cr_ztt_corr_ee": {
        "channels": ["ee"],
        "categories": "boost_3_1J",
        "regions": "Ztt_cr_corr_ll"},

    "chan_ll__cat_boost_3_1J__cr_ztt_corr_mumu": {
        "channels": ["mumu"],
        "categories": "boost_3_1J",
        "regions": "Ztt_cr_corr_ll"},

    "chan_lh__cat_boost_3_1J__cr_ztt_corr_ee": {
        "channels": ["ee"],
        "categories": "boost_3_1J",
        "regions": "Ztt_cr_corr_lh"},

    "chan_lh__cat_boost_3_1J__cr_ztt_corr_mumu": {
        "channels": ["mumu"],
        "categories": "boost_3_1J",
        "regions": "Ztt_cr_corr_lh"},

    "chan_hh__cat_boost_3_1J__cr_ztt_corr_ee": {
        "channels": ["ee"],
        "categories": "boost_3_1J",
        "regions": "Ztt_cr_corr_hh"},

    "chan_hh__cat_boost_3_1J__cr_ztt_corr_mumu": {
        "channels": ["mumu"],
        "categories": "boost_3_1J",
        "regions": "Ztt_cr_corr_hh"},

    "chan_ll__cat_boost_0_ge2J__cr_ztt_corr_ee": {
        "channels": ["ee"],
        "categories": "boost_0_ge2J",
        "regions": "Ztt_cr_corr_ll"},

    "chan_ll__cat_boost_0_ge2J__cr_ztt_corr_mumu": {
        "channels": ["mumu"],
        "categories": "boost_0_ge2J",
        "regions": "Ztt_cr_corr_ll"},

    "chan_lh__cat_boost_0_ge2J__cr_ztt_corr_ee": {
        "channels": ["ee"],
        "categories": "boost_0_ge2J",
        "regions": "Ztt_cr_corr_lh"},

    "chan_lh__cat_boost_0_ge2J__cr_ztt_corr_mumu": {
        "channels": ["mumu"],
        "categories": "boost_0_ge2J",
        "regions": "Ztt_cr_corr_lh"},

    "chan_hh__cat_boost_0_ge2J__cr_ztt_corr_ee": {
        "channels": ["ee"],
        "categories": "boost_0_ge2J",
        "regions": "Ztt_cr_corr_hh"},

    "chan_hh__cat_boost_0_ge2J__cr_ztt_corr_mumu": {
        "channels": ["mumu"],
        "categories": "boost_0_ge2J",
        "regions": "Ztt_cr_corr_hh"},

    "chan_ll__cat_boost_1_ge2J__cr_ztt_corr_ee": {
        "channels": ["ee"],
        "categories": "boost_1_ge2J",
        "regions": "Ztt_cr_corr_ll"},

    "chan_ll__cat_boost_1_ge2J__cr_ztt_corr_mumu": {
        "channels": ["mumu"],
        "categories": "boost_1_ge2J",
        "regions": "Ztt_cr_corr_ll"},

    "chan_lh__cat_boost_1_ge2J__cr_ztt_corr_ee": {
        "channels": ["ee"],
        "categories": "boost_1_ge2J",
        "regions": "Ztt_cr_corr_lh"},

    "chan_lh__cat_boost_1_ge2J__cr_ztt_corr_mumu": {
        "channels": ["mumu"],
        "categories": "boost_1_ge2J",
        "regions": "Ztt_cr_corr_lh"},

    "chan_hh__cat_boost_1_ge2J__cr_ztt_corr_ee": {
        "channels": ["ee"],
        "categories": "boost_1_ge2J",
        "regions": "Ztt_cr_corr_hh"},

    "chan_hh__cat_boost_1_ge2J__cr_ztt_corr_mumu": {
        "channels": ["mumu"],
        "categories": "boost_1_ge2J",
        "regions": "Ztt_cr_corr_hh"},

    "chan_ll__cat_boost_2_ge2J__cr_ztt_corr_ee": {
        "channels": ["ee"],
        "categories": "boost_2_ge2J",
        "regions": "Ztt_cr_corr_ll"},

    "chan_ll__cat_boost_2_ge2J__cr_ztt_corr_mumu": {
        "channels": ["mumu"],
        "categories": "boost_2_ge2J",
        "regions": "Ztt_cr_corr_ll"},

    "chan_lh__cat_boost_2_ge2J__cr_ztt_corr_ee": {
        "channels": ["ee"],
        "categories": "boost_2_ge2J",
        "regions": "Ztt_cr_corr_lh"},

    "chan_lh__cat_boost_2_ge2J__cr_ztt_corr_mumu": {
        "channels": ["mumu"],
        "categories": "boost_2_ge2J",
        "regions": "Ztt_cr_corr_lh"},

    "chan_hh__cat_boost_2_ge2J__cr_ztt_corr_ee": {
        "channels": ["ee"],
        "categories": "boost_2_ge2J",
        "regions": "Ztt_cr_corr_hh"},

    "chan_hh__cat_boost_2_ge2J__cr_ztt_corr_mumu": {
        "channels": ["mumu"],
        "categories": "boost_2_ge2J",
        "regions": "Ztt_cr_corr_hh"},

    "chan_ll__cat_boost_3_ge2J__cr_ztt_corr_ee": {
        "channels": ["ee"],
        "categories": "boost_3_ge2J",
        "regions": "Ztt_cr_corr_ll"},

    "chan_ll__cat_boost_3_ge2J__cr_ztt_corr_mumu": {
        "channels": ["mumu"],
        "categories": "boost_3_ge2J",
        "regions": "Ztt_cr_corr_ll"},

    "chan_lh__cat_boost_3_ge2J__cr_ztt_corr_ee": {
        "channels": ["ee"],
        "categories": "boost_3_ge2J",
        "regions": "Ztt_cr_corr_lh"},

    "chan_lh__cat_boost_3_ge2J__cr_ztt_corr_mumu": {
        "channels": ["mumu"],
        "categories": "boost_3_ge2J",
        "regions": "Ztt_cr_corr_lh"},

    "chan_hh__cat_boost_3_ge2J__cr_ztt_corr_ee": {
        "channels": ["ee"],
        "categories": "boost_3_ge2J",
        "regions": "Ztt_cr_corr_hh"},

    "chan_hh__cat_boost_3_ge2J__cr_ztt_corr_mumu": {
        "channels": ["mumu"],
        "categories": "boost_3_ge2J",
        "regions": "Ztt_cr_corr_hh"},

    "chan_ll__cat_vbf_0__cr_ztt_corr_ee": {
        "channels": ["ee"],
        "categories": "vbf_0",
        "regions": "Ztt_cr_corr_ll"},

    "chan_ll__cat_vbf_0__cr_ztt_corr_mumu": {
        "channels": ["mumu"],
        "categories": "vbf_0",
        "regions": "Ztt_cr_corr_ll"},

    "chan_lh__cat_vbf_0__cr_ztt_corr_ee": {
        "channels": ["ee"],
        "categories": "vbf_0",
        "regions": "Ztt_cr_corr_lh"},

    "chan_lh__cat_vbf_0__cr_ztt_corr_mumu": {
        "channels": ["mumu"],
        "categories": "vbf_0",
        "regions": "Ztt_cr_corr_lh"},

    "chan_hh__cat_vbf_0__cr_ztt_corr_ee": {
        "channels": ["ee"],
        "categories": "vbf_0",
        "regions": "Ztt_cr_corr_hh"},

    "chan_hh__cat_vbf_0__cr_ztt_corr_mumu": {
        "channels": ["mumu"],
        "categories": "vbf_0",
        "regions": "Ztt_cr_corr_hh"},

    "chan_ll__cat_vh_0__cr_ztt_corr_ee": {
        "channels": ["ee"],
        "categories": "vh_0",
        "regions": "Ztt_cr_corr_ll"},

    "chan_ll__cat_vh_0__cr_ztt_corr_mumu": {
        "channels": ["mumu"],
        "categories": "vh_0",
        "regions": "Ztt_cr_corr_ll"},

    "chan_lh__cat_vh_0__cr_ztt_corr_ee": {
        "channels": ["ee"],
        "categories": "vh_0",
        "regions": "Ztt_cr_corr_lh"},

    "chan_lh__cat_vh_0__cr_ztt_corr_mumu": {
        "channels": ["mumu"],
        "categories": "vh_0",
        "regions": "Ztt_cr_corr_lh"},

    "chan_hh__cat_vh_0__cr_ztt_corr_ee": {
        "channels": ["ee"],
        "categories": "vh_0",
        "regions": "Ztt_cr_corr_hh"},

    "chan_hh__cat_vh_0__cr_ztt_corr_mumu": {
        "channels": ["mumu"],
        "categories": "vh_0",
        "regions": "Ztt_cr_corr_hh"},

    "chan_ll__cat_vbf_1__cr_ztt_corr_ee": {
        "channels": ["ee"],
        "categories": "vbf_1",
        "regions": "Ztt_cr_corr_ll"},

    "chan_ll__cat_vbf_1__cr_ztt_corr_mumu": {
        "channels": ["mumu"],
        "categories": "vbf_1",
        "regions": "Ztt_cr_corr_ll"},

    "chan_lh__cat_vbf_1__cr_ztt_corr_ee": {
        "channels": ["ee"],
        "categories": "vbf_1",
        "regions": "Ztt_cr_corr_lh"},

    "chan_lh__cat_vbf_1__cr_ztt_corr_mumu": {
        "channels": ["mumu"],
        "categories": "vbf_1",
        "regions": "Ztt_cr_corr_lh"},

    "chan_hh__cat_vbf_1__cr_ztt_corr_ee": {
        "channels": ["ee"],
        "categories": "vbf_1",
        "regions": "Ztt_cr_corr_hh"},

    "chan_hh__cat_vbf_1__cr_ztt_corr_mumu": {
        "channels": ["mumu"],
        "categories": "vbf_1",
        "regions": "Ztt_cr_corr_hh"},

    "chan_ll__cat_vh_1__cr_ztt_corr_ee": {
        "channels": ["ee"],
        "categories": "vh_1",
        "regions": "Ztt_cr_corr_ll"},

    "chan_ll__cat_vh_1__cr_ztt_corr_mumu": {
        "channels": ["mumu"],
        "categories": "vh_1",
        "regions": "Ztt_cr_corr_ll"},

    "chan_lh__cat_vh_1__cr_ztt_corr_ee": {
        "channels": ["ee"],
        "categories": "vh_1",
        "regions": "Ztt_cr_corr_lh"},

    "chan_lh__cat_vh_1__cr_ztt_corr_mumu": {
        "channels": ["mumu"],
        "categories": "vh_1",
        "regions": "Ztt_cr_corr_lh"},

    "chan_hh__cat_vh_1__cr_ztt_corr_ee": {
        "channels": ["ee"],
        "categories": "vh_1",
        "regions": "Ztt_cr_corr_hh"},

    "chan_hh__cat_vh_1__cr_ztt_corr_mumu": {
        "channels": ["mumu"],
        "categories": "vh_1",
        "regions": "Ztt_cr_corr_hh"}


}
